id,cod_com,pop
Trinità d'Agultu e Vignola,090074,2227
Viddalba,090082,1687
Aglientu,090062,1249
Tempio Pausania,090070,14052
Bortigiadas,090014,759
Berchidda,090009,2749
Monti,090041,2413
Padru,090090,2114
Olbia,090047,60261
Bitti,091009,2809
Buddusò,090017,3846
Oschiri,090049,3265
Putifigari,090060,719
Olmedo,090048,4172
Villanova Monteleone,090078,2288
Sassari,090064,126769
Uri,090076,2989
Bultei,090018,924
Bono,090012,3531
Nughedu San Nicolò,090044,807
Ozieri,090052,10575
Chiaramonti,090025,1623
Mores,090042,1902
Siligo,090068,863
Ploaghe,090057,4520
Palau,090054,4224
Luogosanto,090036,1864
Sant'Antonio di Gallura,090085,1502
Florinas,090029,1507
Bessude,090010,410
Orani,091061,2865
Nule,090045,1369
Oniferi,091060,898
Nuoro,091051,36579
Pattada,090055,3048
Orune,091067,2320
Alà dei Sardi,090002,1853
Calangianus,090021,4082
Thiesi,090071,2936
Bonnanaro,090011,973
Banari,090007,569
Ittiri,090033,8541
Torralba,090073,946
Orotelli,091064,2017
Anela,090004,630
Bonorva,090013,3386
Bottidda,090016,680
Benetutti,090008,1819
Giave,090030,522
Macomer,091044,10019
Semestene,090066,148
Cossoine,090027,847
Bolotana,091010,2579
Illorai,090031,846
Aggius,090001,1482
Perfugas,090056,2384
Cheremule,090024,428
Burgos,090020,903
Esporlatu,090028,395
Osidda,091068,247
Laerru,090034,895
Santa Maria Coghinas,090087,1391
Sedini,090065,1334
Telti,090080,2297
Luras,090037,2528
Osilo,090050,3007
Ossi,090051,5762
Codrongianos,090026,1306
Muros,090043,843
Valledoria,090079,4316
Tergu,090086,598
Sorso,090069,14826
Borutta,090015,286
Erula,090088,733
Nulvi,090046,2708
Martis,090039,498
Ardara,090005,778
Cargeghe,090022,633
Romana,090061,538
Padria,090053,620
Mara,090038,598
Pozzomaggiore,090059,2577
Usini,090077,4362
Bulzi,090019,507
Arzachena,090006,13756
Ittireddu,090032,500
Loiri Porto San Paolo,090084,3489
Golfo Aranci,090083,2473
Alghero,090003,43979
Tula,090075,1544
Sennori,090067,7190
Tissi,090072,2393
Montresta,095085,470
Bosa,095079,7927
Monteleone Rocca Doria,090040,99
Santa Teresa Gallura,090063,5390
Sindia,091084,1701
Suni,095087,1073
Porto Torres,090058,22367
Stintino,090089,1616
Castelsardo,090023,5990
Badesi,090081,1873
San Teodoro,090092,5010
Torpè,091094,2844
Lodè,091041,1661
Posada,091073,2974
Budoni,090091,5201
Seulo,111082,835
Arzana,091002,2430
Desulo,091016,2310
Belvì,091007,596
Meana Sardo,091047,1778
Laconi,095082,1855
Gadoni,091025,781
Seui,111081,1280
Elini,091019,562
Aritzo,091001,1274
Jerzu,091035,3177
Tortolì,091095,11081
Villagrande Strisaili,091101,3186
Lanusei,091037,5387
Villaputzu,111103,4718
Ilbono,091032,2189
Gairo,091026,1412
Samugheo,095045,3018
Sorgono,091086,1657
Neoneli,095032,679
Olzai,091057,873
Teti,091090,670
Ortueri,091066,1135
Nughedu Santa Vittoria,095034,475
Cardedu,091103,1928
Loceri,091039,1298
Urzulei,091099,1215
Triei,091097,1132
Dorgali,091017,8596
Lotzorai,091042,2157
Tonara,091093,2020
Atzara,091003,1123
Bortigali,091012,1335
Borore,091011,2079
Dualchi,091018,613
Lula,091043,1384
Onanì,091058,380
Silanus,091083,2109
Ottana,091070,2303
Noragugume,091050,309
Lei,091038,499
Aidomaggiore,095002,442
Norbello,095033,1307
Scano di Montiferro,095051,1493
Birori,091008,529
Santu Lussurgiu,095049,2372
Fonni,091024,3892
Ovodda,091071,1610
Tiana,091091,487
Oliena,091055,7018
Orgosolo,091062,4176
Galtellì,091027,2440
Orosei,091063,7049
Baunei,091006,3602
Gavoi,091028,2641
Mamoiada,091046,2523
Lodine,091104,331
Villanova Tulo,111099,1091
Tertenia,091089,3927
Ussassai,091100,556
Osini,091069,776
Loculi,091040,517
Onifai,091059,717
Irgoli,091033,2303
Ollolai,091056,1283
Bari Sardo,091005,3993
Siniscola,091085,11531
Ulassai,091098,1448
Girasole,091031,1308
Talana,091088,1013
Sedilo,095052,2094
Sarule,091077,1679
Sorradile,095063,363
Austis,091004,810
Busachi,095017,1274
Ulà Tirso,095068,564
Escalaplano,111018,2154
Sagama,095086,199
Perdasdefogu,091072,1881
Esterzili,111020,635
Santadi,111068,3385
Villa San Pietro,092099,2138
Elmas,092108,9546
Capoterra,092011,23583
Sestu,092074,20958
Decimomannu,092015,8234
Nuxis,111049,1557
San Sperate,111065,8318
Cagliari,092009,154106
Sarroch,092066,5283
Uta,092090,8696
Siliqua,111084,3844
Assemini,092003,26901
Quartu Sant'Elena,092051,70879
Monserrato,092109,19771
Selargius,092068,28986
Villasor,111106,6937
Villaspeciosa,111107,2588
Castiadas,111011,1655
Quartucciu,092105,13234
Sinnai,092080,17562
Villasimius,111105,3721
Domus de Maria,111015,1663
Teulada,111089,3559
Maracalagonis,092037,7980
Pula,092050,7338
Settimo San Pietro,092075,6760
Monastir,111041,4640
Serdiana,111076,2673
Soleminis,111087,1869
San Vito,111066,3632
Burcei,111007,2787
Villasalto,111104,1046
Dolianova,111014,9696
Paulilatino,095041,2207
Ghilarza,095021,4452
Soddì,095078,118
Gonnosnò,095023,759
Ales,095004,1410
Mogorella,095028,449
Genoni,111023,813
Assolo,095008,376
Villa Sant'Antonio,095048,355
Usellus,095070,765
Pau,095040,299
Santa Giusta,095047,4807
Marrubiu,095025,4819
Villa Verde,095073,308
Curcuris,095077,301
Palmas Arborea,095039,1523
Albagiara,095003,254
Morgongiori,095030,716
Villaurbana,095072,1631
Fordongianus,095020,878
Siamanna,095057,809
Ruinas,095044,674
Terralba,095065,10196
Tadasuni,095064,146
Nureci,095036,357
Senis,095054,438
Ussaramanna,111094,527
Turri,111092,424
Sini,095060,529
Baressa,095012,642
Zeddiani,095074,1162
Riola Sardo,095043,2143
Oristano,095038,31671
San Vero Milis,095050,2493
Nurachi,095035,1766
Baradili,095010,83
Simala,095058,315
Gonnoscodina,095022,469
Tramatza,095066,961
Solarussa,095062,2400
Bonarcado,095015,1587
Milis,095027,1513
Bauladu,095013,677
Seneghe,095053,1749
Allai,095005,363
Sennariolo,095055,186
Tresnuraghes,095067,1163
Narbolia,095031,1783
Villanova Truschedu,095071,301
Ollastra,095037,1212
Siapiccia,095076,353
Boroneddu,095016,153
Abbasanta,095001,2689
Bidonì,095014,143
Ardauli,095007,852
Masullas,095026,1061
Gonnostramatza,095024,879
Siddi,111083,648
Mogoro,095029,4118
Collinas,111012,829
Uras,095069,2825
Arborea,095006,3906
Pompu,095042,253
Siris,095061,231
San Nicolò d'Arcidano,095046,2630
Pabillonis,111052,2717
Sardara,111072,4033
Cuglieri,095019,2649
Cabras,095018,9278
Baratili San Pietro,095011,1312
Zerfaliu,095075,1075
Simaxis,095059,2227
Siamaggiore,095056,926
Asuni,095009,345
Guspini,111034,11725
Flussio,095080,433
Genuri,111024,320
Arbus,111001,6282
Magomadas,095083,655
Modolo,095084,163
Tinnura,095088,242
Nuragus,111045,901
Nurallao,111046,1250
Isili,111036,2659
Fluminimaggiore,111021,3026
Gonnosfanadiga,111031,6530
San Nicolò Gerrei,111064,769
Ballao,111003,790
Silius,111085,1168
Armungia,111002,459
Goni,111029,478
Samatzai,111060,1665
Donori,111017,2071
Sant'Andrea Frius,111069,1747
Ortacesus,111051,917
Pimentel,111055,1182
Villanovafranca,111101,1315
Gesturi,111027,1224
Las Plassas,111037,231
Tuili,111091,1001
Gergei,111025,1218
Iglesias,111035,26784
Sant'Antioco,111071,11152
Gonnesa,111030,4965
San Giovanni Suergiu,111063,6018
Narcao,111044,3291
Perdaxius,111054,1423
Tratalias,111090,1080
Portoscuso,111057,5104
Muravera,111042,5273
Villanovaforru,111100,705
Vallermosa,111095,1922
Musei,111043,1529
Villamassargia,111098,3546
Villacidro,111096,14019
Barrali,111004,1134
Ussana,111093,4175
Orroli,111050,2224
Gesico,111026,845
Serri,111079,644
Mandas,111039,2174
Nurri,111048,2154
Sadali,111058,942
Domusnovas,111016,6145
Buggerru,111006,1057
Serrenti,111078,4808
Segariu,111073,1177
Sanluri,111067,8464
Samassi,111059,5110
Setzu,111080,145
Barumini,111005,1270
Escolca,111019,582
Suelli,111088,1127
Guasila,111033,2681
Guamaggiore,111032,999
Selegas,111074,1347
Piscinas,111056,860
Masainas,111040,1288
Siurgus Donigala,111086,1968
Carbonia,111009,28265
San Gavino Monreale,111062,8594
Villamar,111097,2660
Pauli Arbarei,111053,603
Giba,111028,2044
Sant'Anna Arresi,111070,2739
Nuraminis,111047,2524
Villaperuccio,111102,1090
Serramanna,111077,9110
Senorbì,111075,4855
Lunamatrona,111038,1705
Furtei,111022,1633
San Basilio,111061,1237
Calasetta,111008,2909
Decimoputzu,111013,4356
